Analysis of Heart Disease
…
Now we can further analyze the data using logistic regression tactics. We use logistic regression here since the dependent variable, target, is a catagorical variable with values of either 0 or 1. This analysis will help use determine which attributes significantly impact the likelihood of heart disease. After developing the model with all the attributes (factoring the categorical attributes), we tidy it in order to see all the values and understand which are the most significant.

Our null hypothesis is: All attributes (respectively) have no impact on whether a patient has heart disease or not.

After conducting the logistic regression, we see that the P value for several attributes is relatively small, suggesting that they significantly impact the target attribute. Assuming a rejection threshold of 0.01, then the P values for attributes like sex (female), chest pain (type 2 and 3), and number of major vessels (count of 1 and 2) are the most statistically significant and allow us to reject the null hypothesis.

heart_data<- data
glm.mod = glm(target ~ age + factor(sex) + factor(cp) + trestbps + chol + factor(fbs) +
                factor(restecg) + thalach + factor(exang) + oldpeak + factor(slope) +
                factor(thal) + factor(ca), data = heart_data, 
              family = binomial(link = "logit"))
tidy(glm.mod)

## # A tibble: 23 x 5
##    term             estimate std.error statistic  p.value
##    <chr>               <dbl>     <dbl>     <dbl>    <dbl>
##  1 (Intercept)       0.179     3.71       0.0483 0.961   
##  2 age               0.0278    0.0254     1.09   0.274   
##  3 factor(sex)1     -1.86      0.571     -3.26   0.00110 
##  4 factor(cp)1       0.865     0.578      1.50   0.135   
##  5 factor(cp)2       2.00      0.529      3.78   0.000154
##  6 factor(cp)3       2.42      0.719      3.36   0.000778
##  7 trestbps         -0.0262    0.0119    -2.19   0.0285  
##  8 chol             -0.00429   0.00424   -1.01   0.312   
##  9 factor(fbs)1      0.446     0.588      0.758  0.448   
## 10 factor(restecg)1  0.461     0.400      1.15   0.249   
## # ... with 13 more rows
…
